{
  "bodyParts": {
    "left_arm_mesh.txt": {
      "childLink": "left_upper_arm_skin",
      "color": "Gazebo/Red",
      "joint": {
        "dynamics": {
          "damping": 10,
          "friction": 0
        },
        "name": "l_upper_arm_to_skin",
        "origin": {
          "xyz": [0.000, 0, 0.08],
          "rpy": [-1.571, 0, 0]
        },
        "type": "revolute"
      },
      "parentLink": "l_upper_arm"
    },
    
    "left_forearm_V2.txt": {
      "childLink": "left_forearm_skin",
      "color": "Gazebo/Red",
      "joint": {
        "dynamics": {
          "damping": 10,
          "friction": 0
        },
        "name": "l_forearm_to_skin",
        "origin": {
          "xyz": [0.11, 0, 0.029],
          "rpy": [-0.262, 3.1415, -1.571]
        },
        "type": "revolute"
      },
      "parentLink": "l_forearm"
    },

    "left_hand_V2_1.txt": {
      "childLink": "left_hand_skin",
      "color": "Gazebo/Red",
      "joint": {
        "dynamics": {
          "damping": 10,
          "friction": 0
        },
        "name": "l_hand_to_skin",
        "origin": {
          "xyz": [0.06, -0.0075, 0.015],
          "rpy": [-1.571, -0.262, 0]
        },
        "type": "revolute"
      },
      "parentLink": "l_hand"
    },

    "right_arm_mesh.txt": {
      "childLink": "right_upper_arm_skin",
      "color": "Gazebo/Red",
      "joint": {
        "dynamics": {
          "damping": 10,
          "friction": 0
        },
        "name": "r_upper_arm_to_skin",
        "origin": {
          "xyz": [0.000, 0, 0.08],
          "rpy": [-1.571, 3.1415, 0]
        },
        "type": "revolute"
      },
      "parentLink": "r_upper_arm"
    },

    "right_forearm_V2.txt": {
      "childLink": "right_forearm_skin",
      "color": "Gazebo/Red",
      "joint": {
        "dynamics": {
          "damping": 10,
          "friction": 0
        },
        "name": "r_forearm_to_skin",
        "origin": {
          "xyz": [-0.11, 0, 0.029],
          "rpy": [-0.262, 0, -1.571]
        },
        "type": "revolute"
      },
      "parentLink": "r_forearm"
    },

    "right_hand_V2_1.txt": {
      "childLink": "right_hand_skin",
      "color": "Gazebo/Red",
      "joint": {
        "dynamics": {
          "damping": 10,
          "friction": 0
        },
        "name": "r_hand_to_skin",
        "origin": {
          "xyz": [-0.06, -0.0075, 0.015],
          "rpy": [1.571, 3.4035, 0]
        },
        "type": "revolute"
      },
      "parentLink": "r_hand"
    },

    "torso.txt": {
      "childLink": "chest_skin",
      "color": "Gazebo/Red",
      "joint": {
        "dynamics": {
          "damping": 10,
          "friction": 0
        },
        "name": "chest_to_skin",
        "origin": {
          "xyz": [0, 0.1425, 0.001],
          "rpy": [0, -1.571, 0]
        },
        "type": "prismatic"
      },
      "parentLink": "chest"
    }
  },
  "libcontactPath": "libcontact.so",
  "taxel": {
    "length": 0.001,
    "radius": 0.0022
  }
}
