4 1 24.4
14 1 29.5
24 1 29.8
34 1 24.6
44 1 14
54 1 8.7
64 1 10.3
74 1 18.6
84 1 25.6
94 1 0.7
104 1 0.5
114 1 17.5
124 1 13.7
134 1 5.1
144 1 12.1
154 1 18.9
164 1 12.2
174 1 17.6
184 1 23.9
194 1 9.7
204 1 13.2
214 1 27.4
224 1 33.1
234 1 32.1
244 1 32.5
254 1 8.7
264 1 5.7
274 1 10.7
284 1 16.5
294 1 0.8
304 1 3.1
314 1 15.3
324 1 23
334 0 14.4
344 0 29.4
354 0 32
364 1 20.3
374 1 4.3
384 1 12.5
394 1 5.3
404 1 8.8
414 1 22
424 1 14
434 1 31.2
