  4 1 37.7
 14 1 27.9
 24 1 46.4
 34 1 13.4
 44 1 37.7
 54 1 44.9
 64 1 16.4
 74 1 20.3
 84 1 47.0
 94 1 12.7
104 1 13.7
114 1 11.7
124 1 13.4
134 1 12.5
144 1 21.4
154 1 3.4
164 1 15.0
174 1 12.5
184 1 34.7
194 1 31.8
204 1 13.9
214 1 47.7
224 0 30
234 0 5.6
244 1 25.8
254 1 6.9
264 1 14.9
274 1 24.9
284 1 48.7
294 1 16.6
304 1 9.8
314 1 25.5
324 1 39.9
334 1 45.8
344 0 5.5
354 1 36.2
364 1 19.8
374 1 21
384 1 15.6
394 1 10.1
404 1 4.5
414 1 46
424 0 26.5
434 1 18
