91.7555778686349,330.218983156301
184.242298245168,23.777336556933
312.809280364845,174.392404255029
390.113717575688,225.670290177872
40.5628844328926,120.452498560055
464.692985484365,357.522506648088
387.856339304201,428.091146003144
243.395816201586,140.753847559277
217.92929429046,365.525414861871
223.391874714903,68.8814462597582
153.174736008279,418.361390874859
254.254327690563,69.30085787118
255.385782086055,294.104692694747
408.813854161131,183.078400227469
397.415708441727,403.379772330553
322.159065096846,251.890392888078
189.304691330134,244.797169361677
405.790229141239,438.524361692522
266.412794399727,176.570906469478
175.363551788442,224.721778285874
469.500780999943,481.765143421713
437.971405746492,21.1488989572714
275.078171449211,486.479167070317
311.237543000614,94.603421561188
293.522352265708,333.560150020037
103.871146366514,293.219807339459
150.623165139745,337.556208202558
235.461674258795,180.51102459733
115.244080105779,310.139213535543
422.154396347695,405.575442550143
97.3821447835246,9.62873870707071
112.960890486199,41.9367541414499
85.3540235739293,487.400833592445
113.832148908277,325.674766207677
217.84934205195,115.618908082176
155.551143325206,201.745571562295
461.689821051622,61.0102591260648
215.103695664792,134.219410698642
92.408160062068,128.923085056302
452.440484339946,165.832619371315
489.874189178043,76.1170064314732
219.434986563052,174.003829858057
55.5596117202994,60.8292271538631
129.032347956033,442.07652887483
204.359923056276,47.139195032073
297.448037004307,465.020313053745
131.105873890423,199.509984517278
301.421544691042,23.7007310145754
355.607890216841,171.18675158037
110.87336700862,367.983079440082
58.708825427903,397.341078666903
148.337936609163,272.452949122336
159.389150962941,343.11173149202
212.083379856904,446.816347966801
253.929142330559,27.3958949598662
42.757898545022,151.830689858508
131.241117349166,23.0957781657739
400.507311384869,97.7383818168992
14.6101387810731,360.082901258263
464.427069739022,360.876636749648
365.165431427726,438.899535575764
244.30448690179,291.216482243705
289.262530511719,35.342167693325
118.641789885761,461.372285094546
229.424414089966,400.186046175554
481.544269643456,142.973428210182
273.402859369484,271.831616420681
260.567915402001,492.388118485305
115.797193354262,357.839033563311
244.448871960083,419.484798665
312.030044086845,216.630280503974
339.567770432874,235.31235780327
197.757607834297,280.356705522278
183.718324272238,134.545771765499
493.991001580816,374.509233820973
18.8694331197761,251.943886730244
442.584004101238,323.40483313639
456.643413819619,153.87279101547
398.091936792606,69.3623180390723
49.3561393277872,237.786466898781
130.935591935358,181.229640409373
167.678419981398,394.056714199274
339.863975688669,390.147910422055
68.2765686776848,334.256107126772
360.61374929087,66.7519298306561
53.3809308036207,10.7779436017485
326.87867433428,279.920352936255
247.086968319635,150.409509034745
389.525861615638,469.704856936729
357.518539200347,490.451818023429
451.860280278158,143.31019444713
445.461252165395,400.410143475767
167.081526368748,448.055675716302
349.372916167397,298.763288408915
98.9049133429646,442.00836786191
15.2704731523183,471.865770597896
372.037130183731,274.579043709951
250.0112177951,364.193412297178
239.96107057303,288.379148929005
452.361119033681,12.9287355415698
304.933324211279,223.265489142407
308.833194794227,323.150978675328
429.721152823106,260.601476336209
402.744712264843,186.156330389756
288.360757807343,468.567333170781
91.461234707457,414.766412263257
119.966005284359,424.542739977228
443.255966538051,186.26711994977
14.337076232053,296.592287609245
244.950694256112,436.276282323779
83.9635728411284,466.750804253553
489.340324820579,334.232137180688
356.347235839457,103.388228967553
250.235812077422,326.925296031294
235.54418727097,36.0257756103249
29.8094337898196,203.363457544682
340.985952074532,333.465766603749
21.2155687503708,466.862829772965
35.7227323003212,405.475016119133
260.824921232142,242.274135917495
48.3650128904335,378.374605032756
409.074276929812,208.523726871383
408.773546039643,485.892996494647
361.219796183421,493.987350615416
74.9327212389834,432.073764515601
329.802626454154,194.441887956214
259.297471255269,227.370914019556
486.487277381931,123.34359881904
324.495746356178,392.211546512089
400.165287676201,441.418802791526
226.89885436346,456.855840646509
216.195751891731,279.142461811137
412.656897701023,299.434051373103
41.734907429457,74.4383601687745
66.5855038035809,449.856742267869
86.6943065595028,225.196790326058
195.468901161868,102.836169731982
415.689871419535,449.82549525454
401.68219580122,381.292769686613
30.2355895849468,441.243153700149
199.628885306788,142.475109012411
263.437915254148,336.612993226129
208.399733965393,332.139952209025
328.429945486854,61.4074969497629
313.986679595052,203.659211528406
145.992039980857,137.643475657845
215.82558512436,358.334870319571
7.74356281800948,141.692190814468
492.031862189577,448.099428424748
83.584204957328,413.28944615678
53.1081724643319,195.013256406999
186.204870027768,248.951471482093
99.0592012714873,347.402596336247
244.843819008012,417.184500549969
169.746706695379,304.814844837866
475.815232388863,287.368580428204
460.166019918282,163.021085461396
26.3384988403963,228.212300425873
368.929047758498,356.897791616567
134.559713199278,442.202522637997
211.417807504404,360.427835408466
273.935450607422,9.30638736319306
471.368492138467,337.388233564143
208.872052158331,219.254412118256
491.526233234928,218.910089583135
150.727474356033,58.5184097528289
350.549377950463,407.340844759291
333.169425792213,162.427719315255
269.563232521428,123.114057117321
349.052760090154,171.35661056164
333.263956701293,187.846070004794
89.0662272001689,273.276896541479
64.0071998600863,280.960077132988
499.54019738068,197.911114312
85.560533178216,199.065439765668
16.300410265264,257.683609605786
280.59989635483,328.765271047955
440.933250225905,475.45759913248
334.587652267197,361.174257163749
95.2166335899771,200.039872681169
184.458273031947,415.935669664905
230.362968630206,67.1691708643541
490.818975485375,30.2333859699142
78.2024761132817,42.1235261573298
427.761402922956,81.9491591648541
322.382268435044,162.109960147025
188.136105139416,150.863388602324
95.4618476181515,5.8404955651698
214.126496489693,269.952546924813
241.011030515928,47.6863463139108
60.3058066485812,73.2574282211157
294.75374234753,315.570603507478
113.093839876338,429.660205714393
192.309562184705,487.110815619357
291.493191373837,285.419213736092
125.903061236156,498.425107287474
145.22033213849,276.770786747766
308.545442196612,257.729227420163
132.640454905015,165.341032995134
412.188133344418,215.000899196698
491.331699860975,245.903126801872
365.124396133799,35.5185419564764
171.938502057492,443.869607766358
292.034666639226,32.3167955254342
53.8845076218715,218.092477865724
453.154075324866,413.314753309446
439.826862240952,197.267342116517
408.880279685321,306.737440852631
130.363999527732,409.320367541105
297.178125332165,443.117519531303
11.2562963701159,465.55581374361
212.629660107067,95.3923240045611
156.359443410308,129.291125709386
80.742372155875,448.93284242015
89.3830933761841,296.680930193054
211.442844550042,251.920040923424
47.1146694438673,306.40479441778
299.261834378371,409.711121115938
235.462128179167,265.944584746463
347.974656650804,101.037548274216
349.943924964146,226.946732840261
319.265379135919,213.955459910085
16.8019180332147,483.026374806
34.4030495590256,310.027527066737
159.799867590248,347.694975959002
265.432140347063,360.08230600899
327.222853878533,173.447595143807
203.809598520576,258.495210262655
409.99061139097,278.347316006051
359.179471602942,78.2476095570223
484.324665115547,281.028022780887
265.666953282837,347.401644554228
162.57284091028,213.227767855119
52.814601664511,418.135210338157
305.4793293731,365.693533080967
389.401120912046,180.015521042886
211.726459481369,227.106185926699
45.4116428937197,193.194949296086
133.235745389536,387.777321125268
76.8283587956533,367.13555284297
140.502651266935,215.138922537078
220.04256950086,346.876287066957
263.571370880326,472.60674358423
228.712182843837,392.11629911587
437.685799302092,352.785929065534
259.026054180552,54.6671197621729
471.811312274194,194.965328578242
318.854549036087,295.452365202668
478.846969920792,229.690023983163
120.35351774008,25.1699933694771
338.061151931876,114.34379201011
144.532285837238,417.09453052845
335.904082707108,7.82234634826351
347.570249775869,431.855432527933
33.9963842350053,39.0345265162171
127.395078298503,334.521295040778
112.020015412109,250.105662140551
333.916363506858,108.996899375077
422.196078263602,285.807862702045
172.231205650521,61.0945754617099
390.259826365679,335.583116494326
337.6660328735,299.792774061407
3.35765715923875,27.9880786938952
301.085243790898,28.1715092716784
193.385597260492,76.2503185012351
457.995622065713,9.81053338279203
0.575528564553618,217.587772848476
231.224579621164,416.110737641409
212.174519907688,308.695085727042
230.458183014482,260.064707655371
385.079864304305,431.934111466805
161.235903593389,48.8489590807216
392.369647380371,454.026101593385
235.678576855306,54.0083470683795
17.881366634559,258.498379048472
87.9372078417655,71.5780110417881
360.879016695551,279.685286201502
236.74299648266,2.28981197366174
76.3606002191159,383.340999310744
170.562303524555,424.354613229141
303.694606884174,458.410635126869
95.8726277308989,493.484137391829
369.213419988471,252.566550899411
121.424799159085,135.710812208758
458.712171024691,50.3752559606178
134.530793343009,253.924415414768
382.750008310719,292.804562850939
94.3309883957455,381.44354795537
143.749086533066,41.4813245552719
45.5567318432675,330.798096541357
288.104690331503,258.489507353107
341.681621647326,85.5240087627236
273.296557295161,469.278932165921
212.864420935594,295.241588571286
322.221390715668,220.31734038042
323.808815086342,470.959465155641
339.508377046601,327.956910128571
317.893355257042,225.972854630193
472.587056554701,419.848710359835
104.467461213011,266.311751237173
354.640851355272,276.943532895637
118.115288496898,340.03276504168
59.6981238986528,183.594952658684
303.651970342817,119.645303096773
225.068848482948,289.461746229547
229.362746824434,433.443527336254
330.972375952826,203.388380107613
385.14275740183,56.3075705125234
175.109006720553,221.922918363479
331.004799179567,150.09220060695
208.079294984898,200.693426907246
420.964576345655,416.681781726567
416.458409537608,201.814331386804
128.220496114574,195.087969065303
306.730368406438,180.224446689472
291.124582263614,70.1276796347222
270.369668562205,130.06509705622
434.970516179004,43.4075504329168
132.389513237815,214.698668542903
159.03703774053,128.64139238493
59.6072705270956,148.777692075559
469.91473517246,212.429205852313
322.775937486262,59.6036297106435
239.731612474444,247.53346190023
319.658480520054,353.20361376878
272.358055263381,121.786686340475
323.655740146564,392.535040967003
271.94296699982,37.0447884304634
360.523310289906,196.941713490848
261.247652888551,1.69706148215371
496.852312060426,110.338445966512
109.338316199817,0.650284350298069
52.8991366251141,94.5898354973676
54.8487322615971,71.2420274104857
31.7956854875528,134.037999561688
202.289997928813,87.4460326678914
224.186456033248,69.3244857962976
182.908088419086,299.442805183933
381.752320424407,450.528952841363
313.948189807084,469.689882942119
385.990192777123,110.592227969539
466.42678513941,241.335687698207
486.370427001507,188.005557962377
96.0141747138875,261.890018482935
69.4371014145777,132.436296774295
348.133168541497,34.1786102354146
46.9100133874328,218.163538740051
262.702201929668,86.9265186825005
265.172109196432,13.0535540774525
430.569905696666,477.339137040225
242.426666776051,215.298259929709
196.728180607633,480.779286551832
335.715569837013,381.207242001496
370.628971727103,3.67433055142347
260.026233695193,340.019320230069
173.856335638763,352.975377124442
74.9986269158415,322.564393303691
293.046033615731,276.154922253865
131.072658863904,109.05436489164
22.2270461391192,386.183106806521
377.46663361559,114.014161800225
121.392678910481,185.432359486703
221.201156500972,445.464410512847
343.898042560054,428.18845386413
179.61410520093,201.216774906722
368.170037150601,159.009558748368
197.353737639382,304.317715317495
341.707933483989,455.097613347241
352.023715167133,454.549093900441
221.152706691685,295.797204453719
9.78881177665936,166.285703667776
165.428940107036,426.53181460496
212.154748416569,221.198946520583
135.135211716033,452.177739108972
98.5268990477279,16.5897029760637
410.860592480655,266.213241250066
214.960704691633,358.248673252191
443.885477128177,89.6509219108947
195.591497730582,168.266462900531
384.557193694148,93.8564742876337
198.395758506808,160.963591591462
404.257047943673,201.928355615103
377.538549503542,274.283149928482
188.697772417551,24.3692963911333
108.009457980697,276.366066589471
395.203608983457,137.40570241875
474.651955924898,120.750870867056
163.782717037603,121.572589703275
335.63218522587,77.0797245850372
219.322491293478,478.208180504012
416.750297794488,467.8306877583
384.427126214807,409.357218604122
83.6267727473609,364.130923911417
430.990239351036,87.9058641377649
494.936076815752,180.185488521227
257.211728252852,94.3949863208025
442.140511563478,0.599198420021707
294.013027654249,158.209756866272
77.3761743280224,349.808493198528
99.931411428726,312.62759008952
203.477418569453,271.531087671926
374.352859107846,219.518601693835
412.791907893078,143.713633741271
394.981514972265,250.829553373345
159.262122699496,380.773092834823
267.032063685363,381.204024394357
44.9753393852905,288.027950748278
55.8528720966017,373.831418820858
68.1462744691493,322.767252990661
339.326152400094,61.6097591622531
247.58850954483,252.198930046383
94.8552030087901,173.630656360817
247.50291249511,46.0738424025522
73.8041109883443,73.9247340162594
27.4870734530941,99.0848505332009
425.356337144504,336.135118728714
280.279763677442,215.755591450945
464.804433378332,347.201954842277
348.333600277614,128.392281635074
291.39548258792,4.87932494257976
407.698605738711,266.141535530444
439.506952298589,139.695982626482
494.455808039795,473.115076759963
0.261187678472385,453.221633255001
432.719295506512,196.342287987056
306.283234741999,12.427616922436
494.975102854415,335.71839828623
263.840034669221,418.585317688527
239.761692605109,485.749819155632
400.673802760976,28.466442717624
113.921467853021,225.161906366726
249.047145598195,291.235150868144
450.426244266002,343.318907248152
287.330609565094,359.716376297999
422.589092527018,325.020375962695
369.320145997701,363.457275456326
292.993517913238,186.923832919991
123.367262992987,290.791041606433
333.208108659734,58.0592563897002
41.7414068013113,28.8271806074361
312.979892585792,489.882611987993
330.472278973671,142.411863430309
364.875927658611,297.487149404798
445.376058162661,481.08051550563
491.151611441803,92.8891317042891
384.514542667948,96.5199079885133
290.723243937699,170.822052322571
464.156531157094,466.44894790904
290.045182879221,195.333768308798
8.49146916863064,136.608353999982
60.4297855492791,75.9735399234221
431.355359349835,198.554421371726
242.148255606051,187.361233475621
422.427837288132,65.5573535215027
104.702542010467,217.520358947813
276.145670769387,45.7565836063054
314.941692532211,307.313479006473
15.9955078812835,5.48954614540587
307.35670955857,286.630191631686
181.205731136526,394.864929012881
24.7662895210306,117.683386575435
244.784994588661,224.009856732025
96.2551980310374,284.679091642466
61.5418737729726,30.7007211454235
102.74708545384,248.144442819942
73.2574553074449,321.157617292649
94.5360872363069,110.632865063552
21.3262054555717,418.52822276594
317.598958429941,485.537615721257
140.933427940215,423.186443846587
269.29833902267,252.999727945274
347.581519722166,139.437805572615
249.558006741295,373.308610914101
267.900527875557,118.465192056435
222.591582648021,478.672640809562
61.9661387990351,310.130018038885
245.178646734009,300.131072753814
426.499077670408,86.3022508238343
436.963702930867,45.1733690716123
135.147166146349,127.631101321794
104.230679375657,429.285265629605
282.489785369101,455.533526698897
320.155912581379,349.816883612881
208.514475821443,362.591177511694
102.987757766122,114.943039428748
473.966560646584,288.026728160677
41.0356035488629,405.31405250397
52.8547132908607,201.921684192033
71.0205609519991,494.219633599873
83.2302204382104,44.9994074934442
310.479321967654,160.470516323881
286.854882420599,255.704469409589
26.0389451429348,30.3031832841211
465.600692304125,362.843961772922
364.330840839136,278.277874280996
368.920826898795,264.679951240628
31.7022503464091,414.991216016598
430.220281519116,429.379517035902
467.202559480607,394.514461656975
492.199156120486,158.916526863114
429.469408341933,226.103726881491
392.779494632515,376.113985024971
256.688709293787,54.9308528753429
88.8012302529325,54.8711842969518
199.294748367922,134.9418318522
66.9656254939856,262.318672698155
15.4447743724758,486.325538488749
469.570853034774,355.204342639085
150.653032293196,155.929972573766
147.766917237678,145.728563823864
166.468140918088,425.178668687311
233.534093514426,455.823712003927
324.099203233079,319.638073638032
12.6140907465181,127.685148972222
421.103306209667,44.3329200161415
279.516272494348,419.127793768613
427.049974636722,292.35930963166
173.939597163631,474.054367698011
223.013324027551,30.5144645962546
27.1197422205648,292.320651677555
88.5537668945546,142.554042829321
331.404030980487,413.866086724132
165.414497601652,95.4932203486989
449.24306891715,221.264981101442
59.0775992233553,196.705753183788
494.20896439249,413.286989521383
269.991049518965,338.435546719209
353.458709661381,103.80151718999
499.745810048852,159.052363075132
143.924672407569,66.905492678063
207.261269446554,335.731444739015
232.419970812569,285.495537731203
381.978539245978,84.8835330132442
409.102019453835,73.8278885758684
50.1107700977458,238.039859133728
89.0584769433832,454.051208253475
179.81745674104,276.087513357917
28.3523445341456,16.4699463749383
260.94283683064,26.9314632177781
167.924487338462,402.531614279451
87.8345148378304,225.687427351724
104.473336996568,191.323114779979
452.576779502232,394.821851844845
337.695588668123,182.143434749897
234.234099951999,266.174967499455
456.066237119811,355.828352990633
52.0057873896893,435.738258997923
372.773036850859,164.344805836114
368.133727798319,325.059012698889
280.930712640819,487.418074001379
92.0970487577633,37.9836806470678
298.605675168927,293.509583541386
149.968495044894,206.94324888668
67.0614664143412,154.568213233134
106.300766679421,131.917020763398
447.470837720407,379.383132540102
35.7264063935223,497.607990564876
121.24327946836,93.2857220706846
26.8771961043569,390.572634267382
220.861028532212,97.898990513366
6.64160023362625,496.179486589963
448.595675486786,401.130784882144
98.329095683816,212.113354951653
46.6852583775465,364.431934025687
153.68344979396,249.176791261776
228.028833421871,404.495133599522
50.8346968123776,178.254466740523
497.694863827546,36.6217172449037
166.04641672625,295.495727637425
148.673407943961,455.093915364071
31.0226106598163,96.8829680833052
149.121985943882,216.183895767199
23.1756324490904,374.579864534005
252.714071228851,19.5922433237915
380.712943345057,473.162494902741
315.534999606797,381.836661831881
44.9458253880459,279.41027525478
40.4312115651568,91.9214722328873
388.620268274472,248.974407509473
452.567372111785,258.922800117025
266.8859758835,497.121505322025
54.5771060212293,427.425841545338
412.904428927799,481.201969855985
169.048859401086,339.470504488517
146.986526513242,201.75069440218
373.15671385184,467.489543089026
5.16830917169819,239.742272816241
24.223669626611,115.895805831558
333.958060786812,198.145124254888
301.733991915385,352.538737556394
263.051232897781,279.279517280275
364.854724111614,378.315350447184
353.626742657711,497.740529277629
390.688525899639,481.215702183317
143.988487807086,267.533552628078
346.265993193259,481.935064985857
278.334917482006,57.8129395906296
198.260396290796,25.7241466151026
30.7953335269823,152.174472818287
390.087765745587,290.095916571356
168.791932026023,265.482226169141
303.932953631473,450.604046326572
370.627024751109,270.275212585122
52.4066209867498,215.990305428341
63.9441898914976,271.333493718171
274.770053507599,356.207402894761
242.61470429248,8.33735647011624
445.237839592219,400.460441028924
399.48013940644,71.2546624618953
367.170541847985,239.237236451432
25.6659430561855,128.417677089817
36.4426495494881,184.54584441243
44.2637298373602,330.882456682707
399.175432056976,84.8044067271572
471.504069785351,139.392010219509
341.857786204179,99.1108972569195
66.0414778567814,97.5357666421304
361.362269828383,163.419824174988
55.1767403211743,440.1689301896
58.7464260759165,235.550932507874
320.358961482963,201.984686085471
164.407107378401,89.6157382117234
326.906011297887,484.462498073646
374.56573155176,203.72786890131
291.592865727438,422.243698241724
370.016163993889,307.662548565425
117.413457373952,188.305539016369
367.478770848026,438.590874668549
485.299262543307,392.426213641512
433.465145875958,232.477141657267
43.1172649317482,406.988463410467
183.218308159599,449.22206859006
184.599402165009,214.619271557414
342.514236330805,167.16470981111
298.970817691945,298.323552222623
394.681971820953,450.995404353281
183.826459218938,351.033224679838
103.013929752597,188.727551035432
43.3332736977661,367.477962715007
385.966958549554,477.051393235607
102.83726073238,271.406556551776
194.135815523901,270.052916179683
275.889265978614,155.554819802001
114.47662601155,35.6172859622919
320.970310199594,90.9902335845107
242.24018619909,46.494463435339
75.9227625581333,231.744623881122
390.965983294001,4.66625601388471
50.3031611812108,457.512955867895
147.033166879314,321.370869566552
118.68650985279,0.709529101201478
265.436128513964,15.1926362474589
45.7493656697061,104.23511165266
202.657709940296,227.483072501049
52.4231235578783,63.6330166625667
56.1419810780133,4.32384393904517
392.213945371956,363.539800574264
145.785158953465,177.058233028293
301.766719375443,390.222973048012
482.211333607951,218.328320817646
216.242496985181,218.277391186134
347.37609730897,24.6065901782432
379.049637644727,24.8159507596951
216.32116307355,45.550087706527
327.749019901769,297.018515722061
54.8775253615258,120.542027584511
466.879924192666,420.684550986072
93.7304032108432,428.606382045303
133.089419453819,481.806100475677
398.915130105799,244.449893080302
243.801887716962,110.155050284316
384.479132029435,113.104320420643
198.003372608938,268.393902256413
136.469397061845,381.054854605574
18.617317035164,173.78357522438
336.647457054327,230.61587969575
214.782229625927,319.661881099678
225.869617452368,458.668020433423
304.928584645108,80.7862869451654
29.7016484291386,357.817702083737
157.905719169433,288.869438096205
386.361065431467,216.649488604559
348.216494503047,442.121391315547
62.66609055459,196.525877688456
65.0757251947118,89.4875763138661
46.1761693596008,316.666790160061
3.91014678466745,312.000277156172
211.554692582083,163.970798486624
327.786587468957,401.482657979118
361.461262346012,499.738929317946
265.604646791219,490.489080466073
54.4089691365227,63.5184710974285
315.883186764244,116.120072980896
63.2499326646515,11.8162333291125
67.1516521567873,303.716305200928
49.2970463554989,55.404660643575
71.0136242159642,203.729753939199
84.1256492457639,442.038403330981
98.1244611284777,274.066388738294
158.739887574718,184.501538355809
158.214499573145,104.172991406673
108.78165471141,220.471638262162
125.520923007868,478.098076087939
446.461202642988,62.0129583240216
351.611612278146,235.381622933478
277.868971359693,428.448163891097
92.2168338788266,21.6952357834766
106.01542126616,345.812572600653
38.6734040563384,489.492733337519
456.900205389784,141.633949246068
353.357608848465,66.8902499972116
278.894483377438,342.639842206344
156.714494968296,454.727277874697
83.1017814510753,305.434491191622
311.248629639948,449.99139821643
493.967367476248,96.716875969546
85.2160115284417,377.212290744125
128.896125286007,173.130358332387
198.399659316572,209.312707151356
36.997384788469,77.8599151774461
342.048033481004,409.50029196342
201.194166348081,312.461763923139
491.417600696976,369.280210805324
201.091992611242,402.556210353477
310.335973599789,33.6113287815893
77.1849027396362,475.395158252783
190.672602222236,248.78850551108
80.5669859246804,377.572952350261
379.056215663709,371.202535338471
435.555560957695,415.564787855057
175.388372442946,78.2509233751008
342.767854373769,228.654360275704
147.074316883925,309.05024804719
265.314651928443,466.091677523525
416.211693142592,417.544117779676
298.74509593629,447.711758171175
167.655665352623,291.259262334015
149.612511666553,291.373403180896
226.296270784662,427.462969484977
211.322826610231,17.4328500239654
179.803158986118,442.710047742402
279.159599934649,203.865405677991
371.27268285097,18.191015223916
212.167391812845,373.07397136886
214.677894288103,77.4143853755528
62.4363793599064,71.954164337434
12.217008025187,302.979526661874
145.092632565364,127.240422025684
158.760291449613,162.077102502911
326.845066983238,200.895458923499
478.467962035342,203.186660700564
467.86543639244,193.095569280456
228.943166927183,304.900911918977
120.239198416042,83.4453613331229
381.948972143239,94.0460365976242
379.663691565548,47.3144349310827
370.324032489307,161.593136380632
371.844170743663,384.798464636168
52.9602083663827,117.059001229499
340.780215235158,370.182734812131
231.63028929686,346.409206915865
106.081602627467,412.03910668319
49.2593688440542,413.988774569743
411.787236963919,146.683967004196
87.5048686910398,154.684621211374
81.7849548924966,261.514899220997
332.993608205555,162.649496247213
447.194687677121,415.921255243034
258.279104175635,405.14739537192
351.351153475238,278.499130639304
76.7951883097001,131.482016865079
476.728534943124,340.283101152225
270.442040620738,116.826572721192
339.866949105233,228.212682306556
18.2815090242264,192.283447255762
404.601925646897,269.300719349011
374.309435888099,495.851860480977
60.0935089935403,377.610200838915
262.522582381304,490.227424715187
162.916814381625,117.391320331424
273.224719951534,264.279544276333
199.440376191599,25.7180267834539
207.546693306523,378.437735492311
90.3688801273972,300.989883137755
127.693370244025,428.584354561104
10.2678873290923,494.138569629057
461.837806310204,464.742236212809
326.849944504126,204.757466719408
466.306786024282,0.170731109069455
81.7561842637628,270.439161381522
460.548627946099,103.86531099803
397.328942694377,109.641794091215
288.697098353324,162.903131367111
220.017797880127,47.9747083037922
128.806868356219,373.766830869152
375.973196933725,374.254478696646
114.334741052751,271.649716542554
32.0935436959493,169.066158262027
383.664755388287,416.166830810264
335.601092678268,276.286089012979
357.60625739292,478.77155848101
321.030414216926,446.416659659001
209.524146812442,178.251808563502
195.381041102087,273.200946495944
408.070051437661,173.340875627475
158.713931827925,311.401395329565
407.269886450326,398.312342654198
394.536757469479,372.937450770325
426.131945171923,62.7681156774099
252.818308785878,411.19700337951
317.830694430688,12.5752507142511
475.447207689068,207.214440462016
221.982077509405,365.703733986469
30.009409889738,390.687000137981
433.374948499659,183.642957565684
315.594367134506,372.433928120836
177.536825939424,446.133594115554
498.501635803324,121.301693139835
112.085749491564,64.7984879187701
326.225536484307,112.533941063957
302.49532095413,175.006959500383
193.622715741567,143.542306573088
71.093579645252,463.744003589714
12.5674928551016,25.6568784083978
210.556126882621,296.333377603193
92.0501447137556,81.4494501088662
362.887633734727,419.202884836515
185.181343257599,83.7804651056354
420.780043734103,251.100307704736
367.114845596657,499.66473951286
285.512936412189,177.703575633941
88.4275288126514,23.538854774417
478.692011297862,106.8302925604
132.66101809646,198.919562051353
462.2904476198,166.834090190147
111.885202348521,114.801265984099
186.781903821322,468.060088751034
43.7501747882929,341.594392349991
320.058274123358,481.056897861432
90.3084438765542,218.986588816399
22.5255537367871,470.168327210454
361.586739591548,2.91716228618544
173.718822790895,305.153515034938
330.308412251452,400.53787848306
191.934300535986,116.490766706824
313.673251221733,466.234337960489
10.8249073151532,381.631387666871
455.284994261514,413.224769851341
400.279328139406,286.731794302433
372.923742171361,396.290832060113
406.55640680538,164.520597919624
191.653159312765,111.730988062926
308.639616158225,156.193171009627
287.747429851407,292.261739264278
265.025852382508,414.957070510761
137.534877910968,145.231245773634
124.314479830985,201.277196031561
225.819385225986,431.028649216573
113.856413013274,307.3697751082
402.224791806535,495.593894164896
493.052120947985,101.849437592811
14.995975134695,413.604542473327
267.832095333619,337.930809476387
43.5386099504462,124.474735019904
401.045720277902,237.892813284766
494.57245485017,199.537613363396
33.4731291988751,299.719124545706
469.699180942267,400.261382901925
9.08876681834786,52.5343856455854
341.919306873178,410.721097063196
391.868240041609,420.543165022711
267.068783941364,177.25312220022
442.679725465571,215.034731307917
449.50244945307,286.119609206342
312.968813040248,350.412365385618
68.9344962062791,371.23487849364
108.900796856062,378.942075310393
91.0705379452169,194.564381784613
20.9099319864772,214.651242499919
53.4708292751035,478.172328750329
308.221742542843,286.485683635242
469.830505080533,424.861027109337
177.227865483664,138.172658149112
205.314545029757,311.161807576225
492.174708492226,294.180842306769
472.789594517631,481.734232903496
338.32233921677,42.9513474836255
494.151131156643,250.249445801975
383.415693608297,260.794838249027
168.349632195738,45.0830010844818
331.190930199741,452.333239845063
122.08264339514,442.19446925493
147.753625415798,219.494833402795
340.089185615251,390.861306458583
263.923415209399,74.2325114717042
205.796756703767,309.907963630436
301.319109018199,130.31183969721
375.260027961868,222.828105719788
291.766587130979,421.999755737468
275.896257467984,98.102459365626
291.785309378857,151.925811388826
255.909959979238,241.647283867143
41.2963634993497,168.906021935512
359.785067429745,399.242914760775
498.078055648435,493.743787594676
177.267152478461,79.5237773611973
485.629407591703,118.439891613027
173.22438065018,351.118316333945
443.271930880153,187.735831348774
227.347432495954,486.852451337492
206.713644510408,486.152777844229
108.86603417865,321.849024710702
62.8272936813131,430.04943842708
154.457296783408,200.941699004043
363.052215832416,315.965398988729
391.436036489562,492.618319707415
346.893807493449,279.738702993638
4.90112613153104,466.795957921105
421.606669005255,360.171603000374
461.165998898138,242.019258406171
385.477110336962,319.515546340615
21.3299279675244,443.818432944802
189.093068525109,99.3683750494606
352.169812241684,197.683136977605
364.756522752323,496.087651247653
112.138535332257,201.175808467974
134.527365886683,329.428240536466
336.515582502059,450.674061517256
238.746098863431,497.690888258943
311.858206333721,326.581640547345
118.222466320455,54.2182139277574
88.5618772491583,18.057015397678
414.821692848792,309.045619523487
383.460833967632,283.572180948998
467.239136559135,480.982328902663
53.9444525421818,373.052734709444
91.1137528005279,331.258049217541
49.5476412112292,261.656659206005
244.881900961723,129.947140742199
96.6226652344352,480.996883458086
447.945786896284,270.10201875676
49.5448248409073,15.1350817098844
22.0827858813306,348.157231705564
278.647577902381,259.858078960439
386.247533593812,29.5152778322421
155.970028748134,445.018116614107
89.4912396571675,165.10112125701
169.477839123859,114.85059893556
105.072818521776,56.9743209975946
255.076259882625,155.461356726803
453.182161632607,114.216161067869
314.461969326159,325.998583608502
50.7669444061561,33.0800622991634
195.427376363177,137.715689930458
27.3083076118288,140.910118780433
250.641456601608,440.033129863028
215.860585942124,222.165179349617
498.780174756095,377.957060453981
405.801290497661,301.648187907674
242.825834949009,391.632968702018
447.223877783697,56.9653193392129
68.7732973835324,489.281942579989
195.002457222643,424.298337739774
463.678112499062,25.3232488352717
458.746916208058,233.100916895318
356.787005797158,162.826637474017
309.16869181097,315.102562499875
171.643945120673,115.149581888837
468.013663344885,289.942486640644
62.3870203302463,301.578160219948
365.292680752854,299.939547916429
323.238716212907,224.213940191958
416.575992834648,17.7117303413942
199.141114109388,256.907417519138
374.911104680318,203.865080886318
417.610255239065,54.0230183077794
161.23019868113,229.937814471157
276.130808429177,225.441376837915
489.564566216946,275.570167902209
274.654266509151,402.702158503999
165.211804803301,350.42503639303
309.73577758889,436.117751960799
180.318285501101,26.0960762144505
378.254771750972,109.840655702673
206.950374345095,229.821005055683
246.172552192469,479.266798064505
347.371616566305,395.022678489719
486.366942539892,225.93730452125
163.877480246703,166.714093230433
418.901591539288,29.5476563400403
369.536113636764,370.452651446794
477.087228189772,253.397262027751
15.9613147519892,99.9627065696773
178.434493091271,213.596775550644
331.326917143607,84.3451393561356
140.750779574245,375.847295427344
115.191533658732,184.1754208144
355.564275590163,470.908897619942
312.286458496654,8.58627045535865
295.304326459818,414.5279543894
